age,distance
18,510
20,590
22,560
23,510
23,460
25,490
27,560
28,510
29,460
32,410
37,420
41,460
46,450
49,380
53,460
55,420
63,350
65,420
66,300
67,410
68,300
70,390
71,320
72,370
73,280
74,420
75,460
77,360
79,310
82,360